3/23/23 2:22 PM
Project Statistics

                 	Segments	Words	Characters (without spaces)	Characters (including spaces)	#Files	
Total:           	      64	 1558	                       7646	                         9138	     1	
Remaining:       	      64	 1558	                       7646	                         9138	     1	
Unique:          	      64	 1558	                       7646	                         9138	     1	
Unique Remaining:	      64	 1558	                       7646	                         9138	     1	


Individual File Statistics:

File Name          	Total Segments	Remaining Segments	Unique Segments	Unique Remaining Segments	Total Words	Remaining Words	Unique Words	Unique Remaining Words	Total Characters (without spaces)	Remaining Characters (without spaces)	Unique Characters (without spaces)	Unique Remaining Characters (without spaces)	Total Characters (including spaces)	Remaining Characters (including spaces)	Unique Characters (including spaces)	Unique Remaining Characters (including spaces)	
A world at war.docx	            64	                64	             64	                       64	       1558	           1558	        1558	                  1558	                             7646	                                 7646	                              7646	                                        7646	                               9138	                                   9138	                                9138	                                          9138	
